Predicting Sexual Assault Risk in Chicago
…
vars_net

## Simple feature collection with 656 features and 11 fields
## geometry type:  POLYGON
## dimension:      XY
## bbox:           xmin: 341164.1 ymin: 552875.4 xmax: 368164.1 ymax: 594875.4
## epsg (SRID):    NA
## proj4string:    +proj=tmerc +lat_0=36.66666666666666 +lon_0=-88.33333333333333 +k=0.9999749999999999 +x_0=300000 +y_0=0 +ellps=GRS80 +units=m +no_defs
## # A tibble: 656 x 12
## # Groups:   uniqueID [656]
##    uniqueID                  geometry Abandoned_Build~ Abandoned_Cars_~
##    <chr>                <POLYGON [m]>            <dbl>            <dbl>
##  1 1        ((359164.1 552875.4, 360~                8                8
##  2 10       ((356164.1 553875.4, 357~                0                0
##  3 100      ((360164.1 558875.4, 361~               12               19
##  4 101      ((361164.1 558875.4, 362~                0                1
##  5 102      ((362164.1 558875.4, 363~                0               12
##  6 103      ((363164.1 558875.4, 364~                2                7
##  7 104      ((364164.1 558875.4, 365~                4               23
##  8 105      ((365164.1 558875.4, 366~                3               21
##  9 106      ((366164.1 558875.4, 367~                8               89
## 10 107      ((367164.1 558875.4, 368~                2                5
## # ... with 646 more rows, and 8 more variables:
## #   Domestic_Violence_2019 <dbl>, Graffiti_2018 <dbl>,
## #   Liquor_Retail <dbl>, Police_Stations <dbl>, Sanitation_2018 <dbl>,
## #   Street_Lights_Out_2018 <dbl>, Substance_Abuse_2019 <dbl>,
## #   Support_Services <dbl>
…
